PROTRIDER comparison to limma-based approach
…
plot_dt <- rbind(ae_plot_pval[,.(score, num_out_called, method, rankedBy)], 
                 ae_plot_z[,.(score, num_out_called, method, rankedBy)], 
                 limma_plot_pval[,.(score, num_out_called, method, rankedBy)], 
                 limma_plot_z[,.(score, num_out_called, method, rankedBy)])

plot_dt[, rank:=frank(score, ties.method="min"), by="method,rankedBy"]
plot_dt[, total:=.N, by="method,rankedBy"]
plot_dt

## # A tibble: 201,913 x 6
##     score num_out_called method    rankedBy  rank total
##     <dbl>          <int> <chr>     <chr>    <int> <int>
##  1 -Inf                0 PROTRIDER p value      1 52508
##  2 -Inf                0 PROTRIDER p value      1 52508
##  3 -Inf                0 PROTRIDER p value      1 52508
##  4 -Inf                0 PROTRIDER p value      1 52508
##  5 -Inf                0 PROTRIDER p value      1 52508
##  6  -23.0              0 PROTRIDER p value      6 52508
##  7  -21.6              1 PROTRIDER p value      7 52508
##  8  -21.2              1 PROTRIDER p value      8 52508
##  9  -19.5              1 PROTRIDER p value      9 52508
## 10  -19.4              1 PROTRIDER p value     10 52508
## # … with 201,903 more rows
…
